<svg width="20" height="14" viewBox="0 0 20 14" fill="none" xmlns="http://www.w3.org/2000/svg">
<path d="M18 2.7V11.3C18 12.3 17.3 13 16.4 13H3.6C2.7 13 2 12.2 2 11.3V2.7C2 2.6 2 2.5 2 2.4C2.2 1.5 2.8 1 3.6 1H16.5C17.3 1 17.9 1.5 18 2.3C18 2.4 18 2.5 18 2.7Z" stroke="white" stroke-width="2" stroke-miterlimit="10"/>
<path d="M18 2.3L10 7.5L2 2.3C2.2 1.5 2.8 1 3.6 1H16.5C17.2 1 17.8 1.5 18 2.3Z" stroke="white" stroke-width="2" stroke-miterlimit="10"/>
</svg>
