<svg xmlns="http://www.w3.org/2000/svg" width="24" height="25" viewBox="0 0 24 25" fill="none">
  <path d="M2.5 12.5C2.5 8.02166 2.5 5.78249 3.89124 4.39124C5.28249 3 7.52166 3 12 3C16.4783 3 18.7175 3 20.1088 4.39124C21.5 5.78249 21.5 8.02166 21.5 12.5C21.5 16.9783 21.5 19.2175 20.1088 20.6088C18.7175 22 16.4783 22 12 22C7.52166 22 5.28249 22 3.89124 20.6088C2.5 19.2175 2.5 16.9783 2.5 12.5Z" fill="white" fill-opacity="0.16"/>
  <path d="M2.5 12.5C2.5 8.02166 2.5 5.78249 3.89124 4.39124C5.28249 3 7.52166 3 12 3C16.4783 3 18.7175 3 20.1088 4.39124C21.5 5.78249 21.5 8.02166 21.5 12.5C21.5 16.9783 21.5 19.2175 20.1088 20.6088C18.7175 22 16.4783 22 12 22C7.52166 22 5.28249 22 3.89124 20.6088C2.5 19.2175 2.5 16.9783 2.5 12.5Z" stroke="white" stroke-width="1.5" stroke-linejoin="round"/>
  <path d="M13.143 12.0817L17.6107 7H16.5522L12.6711 11.4115L9.5735 7H6L10.6852 13.6715L6 19H7.05857L11.1546 14.3403L14.4265 19H18L13.143 12.0817ZM11.6926 13.7301L11.2172 13.0653L7.44032 7.78088H9.06651L12.1155 12.0472L12.5889 12.7119L16.5517 18.2572H14.9255L11.6926 13.7301Z" fill="white"/>
</svg>
